Homework session 1
…
15 10 2019

1 Data transformation

1.1 Dplyr

I kodene under finner man lsning for fart, strekning og flest besk for dplyr-pakken.

# Average speed in kilometers per hour
df1 <- df %>% 
  mutate(average_speed_kph = ((distance_trip/10)/(duration_minutes/60))/100)

select(df1, duration_minutes:average_speed_kph)

## # A tibble: 97,749 x 6
##    duration_minutes month wday  time_of_day_sta~ distance_trip
##               <dbl> <dbl> <fct>            <int>         <dbl>
##  1               19     6 6                   10           330
##  2               17     6 6                   10          1733
##  3                8     6 6                   11          1405
##  4                7     6 6                   11           898
##  5               29     6 6                   11           637
##  6                8     6 6                   11           655
##  7                8     6 6                   11          1228
##  8               10     6 6                   12           898
##  9               29     6 6                   12          1257
## 10                8     6 6                   12          1702
## # ... with 97,739 more rows, and 1 more variable: average_speed_kph <dbl>
…
rain$date <- as.Date(rain$date)

rain_df <- left_join(df_filtered, rain, by = "date")

rain1 <- rain_df %>% 
  mutate(rain_category = case_when(
    rain == 0 ~ "Ingen regn",
    rain > 0 & rain < 5 ~ "Litt regn",
    rain >= 5 ~ "Mye regn" 
    ))

rain1

## # A tibble: 97,252 x 21
##    started_at          ended_at            duration start_station_id
##    <dttm>              <dttm>                 <dbl>            <dbl>
##  1 2018-07-01 04:11:18 2018-07-01 04:18:22      423                7
##  2 2018-07-01 05:25:10 2018-07-01 05:31:59      408               24
##  3 2018-07-01 05:27:08 2018-07-01 05:34:35      446                5
##  4 2018-07-01 06:24:15 2018-07-01 06:44:35     1219                5
##  5 2018-07-01 06:25:01 2018-07-01 06:44:50     1188                5
##  6 2018-07-01 07:02:33 2018-07-01 07:18:42      969                5
##  7 2018-07-01 07:14:05 2018-07-01 07:23:25      559               82
##  8 2018-07-01 07:33:06 2018-07-01 07:40:17      431               24
##  9 2018-07-01 07:36:35 2018-07-01 07:40:17      222               58
## 10 2018-07-01 07:37:21 2018-07-01 07:57:27     1206               33
## # ... with 97,242 more rows, and 17 more variables:
## #   start_station_name <chr>, start_station_description <chr>,
## #   start_station_latitude <dbl>, start_station_longitude <dbl>,
## #   end_station_id <dbl>, end_station_name <chr>,
## #   end_station_description <chr>, end_station_latitude <dbl>,
## #   end_station_longitude <dbl>, duration_minutes <dbl>, month <dbl>,
## #   wday <fct>, time_of_day_started <int>, distance_trip <dbl>,
## #   date <date>, rain <dbl>, rain_category <chr>
…
2 Data vasking (tidyr)

2.1 Tell and spre

df_pivot <- df %>%
  group_by(start_station_name, end_station_name) %>% 
  summarise(Number_of_occurances = n()) %>%
  pivot_wider(names_from = end_station_name,
              values_from = Number_of_occurances)

df_pivot

## # A tibble: 38 x 39
## # Groups:   start_station_name [38]
##    start_station_n~ Akvariet `Allehelgens pl~ `Bergen jernban~
##    <chr>               <int>            <int>            <int>
##  1 ADO arena              12               53              126
##  2 Akvariet               NA               49              152
##  3 Allehelgens pla~       38               NA              117
##  4 Bergen jernbane~      161               94               NA
##  5 Cornerteateret         90               78              307
##  6 Den Nationale S~       88               18              101
##  7 Den nationale s~       49                3               24
##  8 Grieghallen            72               40               71
##  9 Gulating              228               17              306
## 10 Haukeland sykeh~        5                4               27
## # ... with 28 more rows, and 35 more variables: Cornerteateret <int>, `Den
## #   Nationale Scene` <int>, `Den nationale scene 1` <int>,
## #   Grieghallen <int>, Gulating <int>, `Haukeland sykehus` <int>,
## #   `Hgskulen p Vestlandet` <int>, Hyteknologisenteret <int>,
## #   Johanneskirken <int>, Jonsvollkvartalet <int>, Klosteret <int>,
## #   Lysverket <int>, `Media City` <int>, Mllendalsplass <int>,
## #   Neumannsgate <int>, Nonneseterplass <int>, Nykirken <int>,
## #   Nstetorget <int>, Rdhuset <int>, `Sandviken Brygge` <int>,
## #   Sandvikstorget <int>, Smstrandgaten <int>, Solheimsviken <int>,
…
2.2 Samling

df_pivot_longer <- df %>% 
  mutate(id = row_number()) %>%
  pivot_longer(cols = ends_with("name"),
               names_to = "stasjon",
               values_to = "value",
               names_prefix = "name") %>% 
  select(id:value)

df_pivot_longer

## # A tibble: 195,498 x 3
##       id stasjon            value                 
##    <int> <chr>              <chr>                 
##  1     1 start_station_name Grieghallen           
##  2     1 end_station_name   Bergen jernbanestasjon
##  3     2 start_station_name Studentsenteret UIB   
##  4     2 end_station_name   Akvariet              
##  5     3 start_station_name Trnplass             
##  6     3 end_station_name   Hyteknologisenteret  
##  7     4 start_station_name Hyteknologisenteret  
##  8     4 end_station_name   Bergen jernbanestasjon
##  9     5 start_station_name Trnplass             
## 10     5 end_station_name   Lysverket             
## # ... with 195,488 more rows
…
