Exercises lecture 1
…
# b
df %>% 
  group_by(end_station_name) %>% 
  summarise(snitt_duration = mean(duration)) %>% 
  arrange(-snitt_duration)

## # A tibble: 38 x 2
##    end_station_name                snitt_duration
##    <chr>                                    <dbl>
##  1 Haukeland sykehus                        1266.
##  2 Høyskolen på Vestlandet                  1230.
##  3 Media Bergen                             1156.
##  4 Sandviken Brygge                         1076.
##  5 Høgskulen på Vestlandet                  1027.
##  6 Sandvikstorget                           1002.
##  7 Klostertet                                965.
##  8 Den nationale scene 1                     909.
##  9 Studentboligene ved Grønneviken           841.
## 10 Sandviksbodene                            831.
## # ... with 28 more rows
…
